C:\Users\aman.katoch\sel_git\src\main\java\clui\ErrorStatePage.java
C:\Users\aman.katoch\sel_git\src\main\java\clui\App.java
C:\Users\aman.katoch\sel_git\src\main\java\clui\ViewCoursePage.java
C:\Users\aman.katoch\sel_git\src\main\java\clui\BasePage.java
C:\Users\aman.katoch\sel_git\src\main\java\utils\ExcelUtil.java
C:\Users\aman.katoch\sel_git\src\main\java\clui\EditCoursePage.java
C:\Users\aman.katoch\sel_git\src\main\java\clui\CourseInsightPage2.java
C:\Users\aman.katoch\sel_git\src\main\java\clui\ProfilePage2.java
C:\Users\aman.katoch\sel_git\src\main\java\clui\HomePage.java
C:\Users\aman.katoch\sel_git\src\main\java\clui\LoginPage2.java
C:\Users\aman.katoch\sel_git\src\main\java\clui\CoursePage2.java
